<?xml version="1.0" encoding="iso-8859-1"?>
<svg xmlns="http://www.w3.org/2000/svg" xmlns:xlink="http://www.w3.org/1999/xlink" version="1.1" viewBox="0 0 44 44" enable-background="new 0 0 44 44" width="512px" height="512px">
  <g>
    <g>
      <path d="M29,8V5c0-2.761-2.239-5-5-5h-4c-2.761,0-5,2.239-5,5v3H6v36h32V8H29z M17,5c0-1.657,1.343-3,3-3h4c1.657,0,3,1.343,3,3v3    H17V5z M36,42H8V10h7v4h2v-4h10v4h2v-4h7V42z" fill="#0f2a3d"/>
    </g>
  </g>
</svg>
